<?xml version="1.0" encoding="UTF-8" standalone="no"?>
<svg
   xmlns:dc="http://purl.org/dc/elements/1.1/"
   xmlns:cc="http://creativecommons.org/ns#"
   xmlns:rdf="http://www.w3.org/1999/02/22-rdf-syntax-ns#"
   xmlns:svg="http://www.w3.org/2000/svg"
   xmlns="http://www.w3.org/2000/svg"
   xmlns:sodipodi="http://sodipodi.sourceforge.net/DTD/sodipodi-0.dtd"
   xmlns:inkscape="http://www.inkscape.org/namespaces/inkscape"
   inkscape:version="1.0alpha2 (e9298ea62f, 2019-07-05, custom)"
   sodipodi:docname="boundingbox_left-symbolic.svg"
   viewBox="0 0 16 16"
   height="16"
   width="16"
   id="svg1"
   version="1.1">
<style id="s0">
   .base    { fill: #000000; }
   .success { fill: #009909; }
   .warning { fill: #FF1990; }
   .error   { fill: #00AAFF; }
   .dark    {  }
  </style>
  <style id="s2"> 
     @import '../../highlights.css'; 
  </style>
     

<metadata
     id="metadata1687">
    <rdf:RDF>
      <cc:Work
         rdf:about="">
        <dc:format>image/svg+xml</dc:format>
        <dc:type
           rdf:resource="http://purl.org/dc/dcmitype/StillImage" />
      </cc:Work>
    </rdf:RDF>
  </metadata>
  <defs
     id="defs1685" />
  <sodipodi:namedview
     inkscape:current-layer="svg1"
     inkscape:window-maximized="1"
     inkscape:window-y="27"
     inkscape:window-x="0"
     inkscape:window-height="704"
     inkscape:window-width="1360"
     inkscape:cy="8"
     inkscape:cx="8"
     inkscape:zoom="31.5625"
     showgrid="true"
     id="namedview"
     guidetolerance="10"
     gridtolerance="10"
     objecttolerance="10">
    <inkscape:grid
       id="grid"
       type="xygrid" />
  </sodipodi:namedview>
  <g
     inkscape:label="00354"
     id="boundingbox_left">
    <title
       id="title40636">boundingbox_left</title>
    <g
       transform="rotate(-90,8,8)"
       id="g40638">
      <path
         style="opacity:0;fill:none"
         d="M 0,0 H 16 V 16 H 0 Z"
         id="rect40640"
         inkscape:connector-curvature="0" />
      <path
         style="opacity:1"
         d="M 0,4 H 16 V 6 H 0 Z"
         id="path40644"
         inkscape:connector-curvature="0" />
      <path
         class="success"
         style="stroke-linecap:butt;"
         d="M 8,0 C 5.2444986,0 3,2.2444986 3,5 3,7.7555014 5.2444986,10 8,10 10.755501,10 13,7.7555014 13,5 13,2.2444986 10.755501,0 8,0 Z m 0,1 c 2.215061,0 4,1.7849387 4,4 C 12,7.2150613 10.215061,9 8,9 5.7849387,9 4,7.2150613 4,5 4,2.7849387 5.7849387,1 8,1 Z"
         id="circle40642"
         inkscape:connector-curvature="0" />
    </g>
  </g>
</svg>
