<?xml version="1.0" encoding="UTF-8" standalone="no"?>
<svg
   xmlns:dc="http://purl.org/dc/elements/1.1/"
   xmlns:cc="http://creativecommons.org/ns#"
   xmlns:rdf="http://www.w3.org/1999/02/22-rdf-syntax-ns#"
   xmlns:svg="http://www.w3.org/2000/svg"
   xmlns="http://www.w3.org/2000/svg"
   xmlns:sodipodi="http://sodipodi.sourceforge.net/DTD/sodipodi-0.dtd"
   xmlns:inkscape="http://www.inkscape.org/namespaces/inkscape"
   inkscape:version="1.0beta2 (7cf281c, 2019-12-21)"
   sodipodi:docname="format-indent-less-symbolic.svg"
   viewBox="0 0 16 16"
   height="16"
   width="16"
   id="svg1"
   version="1.1">
  <metadata
     id="metadata7131">
    <rdf:RDF>
      <cc:Work
         rdf:about="">
        <dc:format>image/svg+xml</dc:format>
        <dc:type
           rdf:resource="http://purl.org/dc/dcmitype/StillImage" />
      </cc:Work>
    </rdf:RDF>
  </metadata>
  <defs
     id="defs7129" />
  <style
     id="s0">.base { fill:#000000; }
.success { fill:#009909; }
.warning { fill:#FF1990; }
.error { fill:#00AAFF; }
.dark {  }
</style>
  <style
     id="s2">
@import '../../highlights.css';
</style>
  <sodipodi:namedview
     inkscape:current-layer="format-indent-less"
     inkscape:window-maximized="1"
     inkscape:window-y="-6"
     inkscape:window-x="65"
     inkscape:window-height="890"
     inkscape:window-width="1296"
     inkscape:cy="8"
     inkscape:cx="8"
     inkscape:zoom="41.125"
     showgrid="true"
     id="namedview"
     guidetolerance="10"
     gridtolerance="10"
     objecttolerance="10">
    <inkscape:grid
       id="grid"
       type="xygrid" />
  </sodipodi:namedview>
  <g
     inkscape:label="00386"
     id="format-indent-less">
    <title
       id="title43156">format-indent-less</title>
    <path
       style="opacity:0;fill:none"
       d="M 0,0 H 16 V 16 H 0 Z"
       id="unindent"
       inkscape:connector-curvature="0" />
    <path
       style="opacity:0;fill:none"
       d="M 0,0 H 16 V 16 H 0 Z"
       id="gtk-unindent"
       inkscape:connector-curvature="0" />
    <path
       style="opacity:0.5"
       d="M 2,3 H 7 V 5 H 2 Z"
       id="rect43160"
       inkscape:connector-curvature="0" />
    <path
       style="opacity:0.5"
       d="M 2,7 H 8 V 9 H 2 Z"
       id="rect43162"
       inkscape:connector-curvature="0" />
    <path
       style="opacity:1"
       d="m 7,11 h 7 v 2 H 7 Z"
       id="rect43164"
       inkscape:connector-curvature="0" />
    <path
       class="success"
       id="path43166"
       d="m 14,3 v 1 c 0,0.25689 -0.12983,0.52846 -0.3125,0.71875 L 12.40645,6 13.6877,7.28125 C 13.87037,7.47154 14.0002,7.74311 14.0002,8 v 1 h -1 C 12.69075,9 12.44788,8.9097 12.2502,8.71875 L 9.593948,6 12.2502,3.28125 C 12.44788,3.0903 12.69075,3 13,3 Z"
       style="opacity:1"
       inkscape:connector-curvature="0" />
  </g>
</svg>
