<?xml version="1.0" encoding="UTF-8" standalone="no"?>
<svg
   xmlns:dc="http://purl.org/dc/elements/1.1/"
   xmlns:cc="http://creativecommons.org/ns#"
   xmlns:rdf="http://www.w3.org/1999/02/22-rdf-syntax-ns#"
   xmlns:svg="http://www.w3.org/2000/svg"
   xmlns="http://www.w3.org/2000/svg"
   xmlns:sodipodi="http://sodipodi.sourceforge.net/DTD/sodipodi-0.dtd"
   xmlns:inkscape="http://www.inkscape.org/namespaces/inkscape"
   inkscape:version="1.1-dev (1fceb22, 2019-12-30)"
   sodipodi:docname="object-flip-ver-symbolic.svg"
   viewBox="0 0 16 16"
   height="16"
   width="16"
   id="svg1"
   version="1.1">
  <metadata
     id="metadata16084">
    <rdf:RDF>
      <cc:Work
         rdf:about="">
        <dc:format>image/svg+xml</dc:format>
        <dc:type
           rdf:resource="http://purl.org/dc/dcmitype/StillImage" />
      </cc:Work>
    </rdf:RDF>
  </metadata>
  <defs
     id="defs16082" />
  <style
     id="s0">
.base { fill:#000000; }
.success { fill:#009909; }
.warning { fill:#FF1990; }
.error { fill:#00AAFF; }
.dark { }
</style>
  <style
     id="s2">
@import '../../highlights.css';
</style>
  <sodipodi:namedview
     inkscape:current-layer="svg1"
     inkscape:window-maximized="1"
     inkscape:window-y="-8"
     inkscape:window-x="54"
     inkscape:window-height="1177"
     inkscape:window-width="1858"
     inkscape:cy="8"
     inkscape:cx="8"
     inkscape:zoom="60.1875"
     showgrid="true"
     id="namedview"
     guidetolerance="10"
     gridtolerance="10"
     objecttolerance="10">
    <inkscape:grid
       id="grid"
       type="xygrid" />
  </sodipodi:namedview>
  <g
     inkscape:label="00365"
     id="object-flip-ver"
     transform="translate(-377,-1084.3622)">
    <g
       transform="translate(275.9998,705.3622)"
       inkscape:label="stock-flip-vertical"
       id="g6273">
      <path
         transform="rotate(90)"
         style="opacity:0;fill:none"
         d="m 379,-117.0002 h 16 v 16 h -16 z"
         id="rect6216"
         inkscape:connector-curvature="0" />
      <path
         inkscape:connector-curvature="0"
         id="path6220"
         d="m 110.0002,381 h -2 c -0.01,3.9896 -0.027,8.0105 0.01,12 h 2 c -0.1031,-3.9883 -0.02,-8.0095 -0.01,-12 z"
         style="opacity:1" />
      <path
         inkscape:connector-curvature="0"
         id="path6222"
         d="m 109.0233,394 -4.0231,-4 h 8 z"
         style="opacity:1" />
      <path
         style="opacity:1"
         d="m 109.0233,380 -4.0231,4 h 8 z"
         id="path6271"
         inkscape:connector-curvature="0" />
    </g>
  </g>
</svg>
