<?xml version="1.0" encoding="UTF-8" standalone="no"?>
<svg
   xmlns:dc="http://purl.org/dc/elements/1.1/"
   xmlns:cc="http://creativecommons.org/ns#"
   xmlns:rdf="http://www.w3.org/1999/02/22-rdf-syntax-ns#"
   xmlns:svg="http://www.w3.org/2000/svg"
   xmlns="http://www.w3.org/2000/svg"
   xmlns:sodipodi="http://sodipodi.sourceforge.net/DTD/sodipodi-0.dtd"
   xmlns:inkscape="http://www.inkscape.org/namespaces/inkscape"
   version="1.1"
   id="svg1"
   width="16"
   height="16"
   viewBox="0 0 16 16"
   sodipodi:docname="on-outline-symbolic.svg"
   inkscape:version="1.1-dev (1fceb22, 2019-12-30)">
  <style
     id="s0">
.base { fill:#000000; }
.success { fill:#009909; }
.warning { fill:#FF1990; }
.error { fill:#00AAFF; }
.dark { }
</style>
  <style
     id="s2">
@import '../../highlights.css';
</style>
  <metadata
     id="metadata4888">
    <rdf:RDF>
      <cc:Work
         rdf:about="">
        <dc:format>image/svg+xml</dc:format>
        <dc:type
           rdf:resource="http://purl.org/dc/dcmitype/StillImage" />
        <dc:title />
      </cc:Work>
    </rdf:RDF>
  </metadata>
  <defs
     id="defs4886" />
  <sodipodi:namedview
     objecttolerance="10"
     gridtolerance="10"
     guidetolerance="10"
     id="namedview"
     showgrid="true"
     inkscape:zoom="18.251295"
     inkscape:cx="17.019667"
     inkscape:cy="17.650868"
     inkscape:window-width="1858"
     inkscape:window-height="1177"
     inkscape:window-x="54"
     inkscape:window-y="-8"
     inkscape:window-maximized="1"
     inkscape:current-layer="svg1">
    <inkscape:grid
       type="xygrid"
       id="grid" />
  </sodipodi:namedview>
  <g
     transform="translate(-10.48884,-199.5352)"
     id="on-outline"
     inkscape:label="00338">
    <path
       inkscape:connector-curvature="0"
       id="rect23222-9"
       d="m 10.48884,199.5352 h 16 v 16 h -16 z"
       style="opacity:0;fill:none" />
    <path
       inkscape:connector-curvature="0"
       id="ellipse10646"
       d="m 18.488281,200.51953 c -3.917552,0 -7.111325,3.14298 -7.111328,7.01563 -3e-6,3.87265 3.193772,7.01562 7.111328,7.01562 3.917557,0 7.111332,-3.14297 7.111328,-7.01562 -2e-6,-3.87265 -3.193775,-7.01563 -7.111328,-7.01563 z m 0,1 c 3.384924,0 6.111326,2.69134 6.111328,6.01563 3e-6,3.32428 -2.726401,6.01562 -6.111328,6.01562 -3.384927,0 -6.111331,-2.69134 -6.111328,-6.01562 2e-6,-3.32429 2.726405,-6.01563 6.111328,-6.01563 z"
       style="opacity:1;stroke-linecap:butt" />
    <path
       inkscape:connector-curvature="0"
       id="path10653"
       d="m 21.287109,205.21094 -3.90039,3.59765 -1.69336,-1.57812 -0.68164,0.73047 2.371093,2.21289 4.582032,-4.22656 z"
       style="opacity:1;stroke-linecap:butt" />
  </g>
</svg>
