<?xml version="1.0" encoding="UTF-8" standalone="no"?>
<svg
   xmlns:dc="http://purl.org/dc/elements/1.1/"
   xmlns:cc="http://creativecommons.org/ns#"
   xmlns:rdf="http://www.w3.org/1999/02/22-rdf-syntax-ns#"
   xmlns:svg="http://www.w3.org/2000/svg"
   xmlns="http://www.w3.org/2000/svg"
   xmlns:sodipodi="http://sodipodi.sourceforge.net/DTD/sodipodi-0.dtd"
   xmlns:inkscape="http://www.inkscape.org/namespaces/inkscape"
   inkscape:version="1.1-dev (6039630, 2019-12-20)"
   sodipodi:docname="text_line_spacing-symbolic.svg"
   viewBox="0 0 16 16"
   height="16"
   width="16"
   id="svg1"
   version="1.1">
  <metadata
     id="metadata5767">
    <rdf:RDF>
      <cc:Work
         rdf:about="">
        <dc:format>image/svg+xml</dc:format>
        <dc:type
           rdf:resource="http://purl.org/dc/dcmitype/StillImage" />
      </cc:Work>
    </rdf:RDF>
  </metadata>
  <defs
     id="defs5765" />
  <style
     id="s0">
.base { fill:#000000; }
.success { fill:#009909; }
.warning { fill:#FF1990; }
.error { fill:#00AAFF; }
.dark { }
</style>
  <style
     id="s2">
@import '../../highlights.css';
</style>
  <sodipodi:namedview
     inkscape:current-layer="svg1"
     inkscape:window-maximized="1"
     inkscape:window-y="-6"
     inkscape:window-x="65"
     inkscape:window-height="890"
     inkscape:window-width="1296"
     inkscape:cy="8"
     inkscape:cx="8"
     inkscape:zoom="41.125"
     showgrid="true"
     id="namedview"
     guidetolerance="10"
     gridtolerance="10"
     objecttolerance="10">
    <inkscape:grid
       id="grid"
       type="xygrid" />
  </sodipodi:namedview>
  <g
     id="text_line_spacing"
     inkscape:label="00179"
     transform="translate(-379,-836.36218)">
    <path
       style="opacity:0;fill:none"
       d="m 379,836.36218 h 16 v 16 h -16 z"
       id="rect20922"
       inkscape:connector-curvature="0" />
    <path
       inkscape:connector-curvature="0"
       id="path20924"
       d="m 385.9975,845.3622 -2.5031,6.9896 h 1.5018 c 0.744,-1.9971 -0.002,10e-4 0.7424,-1.9956 l 2.5586,0.018 0.7041,1.9776 h 1.5018 L 388,845.3622 Z m 1.0012,1.4977 1.0123,2.4963 h -2.0024 z"
       style="opacity:1" />
    <path
       style="opacity:1"
       d="m 385.9864,836.3681 -2.5031,6.9896 h 1.5019 c 0.744,-1.997 -0.002,10e-4 0.7424,-1.9955 l 2.5585,0.018 0.7041,1.9775 h 1.5019 l -2.5032,-6.9896 z m 1.0013,1.4978 1.0123,2.4963 h -2.0025 z"
       id="path20926"
       inkscape:connector-curvature="0" />
  </g>
</svg>
