<?xml version="1.0" encoding="UTF-8" standalone="no"?>
<svg
   xmlns:dc="http://purl.org/dc/elements/1.1/"
   xmlns:cc="http://creativecommons.org/ns#"
   xmlns:rdf="http://www.w3.org/1999/02/22-rdf-syntax-ns#"
   xmlns:svg="http://www.w3.org/2000/svg"
   xmlns="http://www.w3.org/2000/svg"
   xmlns:sodipodi="http://sodipodi.sourceforge.net/DTD/sodipodi-0.dtd"
   xmlns:inkscape="http://www.inkscape.org/namespaces/inkscape"
   inkscape:version="1.1-dev (6039630, 2019-12-20)"
   sodipodi:docname="window-next-symbolic.svg"
   viewBox="0 0 16 16"
   height="16"
   width="16"
   id="svg1"
   version="1.1">
  <metadata
     id="metadata10448">
    <rdf:RDF>
      <cc:Work
         rdf:about="">
        <dc:format>image/svg+xml</dc:format>
        <dc:type
           rdf:resource="http://purl.org/dc/dcmitype/StillImage" />
      </cc:Work>
    </rdf:RDF>
  </metadata>
  <defs
     id="defs10446" />
  <style
     id="s0">
.base { fill:#000000; }
.success { fill:#009909; }
.warning { fill:#FF1990; }
.error { fill:#00AAFF; }
.dark { }
</style>
  <style
     id="s2">
@import '../../highlights.css';
</style>
  <sodipodi:namedview
     inkscape:current-layer="svg1"
     inkscape:window-maximized="1"
     inkscape:window-y="-6"
     inkscape:window-x="65"
     inkscape:window-height="890"
     inkscape:window-width="1296"
     inkscape:cy="8"
     inkscape:cx="8"
     inkscape:zoom="41.125"
     showgrid="true"
     id="namedview"
     guidetolerance="10"
     gridtolerance="10"
     objecttolerance="10">
    <inkscape:grid
       id="grid"
       type="xygrid" />
  </sodipodi:namedview>
  <g
     id="window-next"
     inkscape:label="00036"
     transform="translate(-74.997057,-787.36218)">
    <g
       id="g17555"
       transform="matrix(0.9985297,0,0,1,60.04264,180)">
      <path
         style="opacity:0;fill:none"
         d="m 14.97644,607.36218 h 16 v 16 h -16 z"
         id="rect17557"
         inkscape:connector-curvature="0" />
      <path
         style="opacity:0.5"
         d="m 17,609.3622 h 12 v 2 H 17 Z"
         id="path17559"
         inkscape:connector-curvature="0" />
      <path
         style="opacity:1"
         d="m 15,607.36218 h 1 v 16 h -1 z"
         id="rect17561"
         inkscape:connector-curvature="0" />
      <path
         style="opacity:1"
         d="m 15,607.36218 h 16 v 1 H 15 Z"
         id="rect17563"
         inkscape:connector-curvature="0" />
      <path
         style="opacity:1"
         d="m 30,607.36218 h 1 v 16 h -1 z"
         id="rect17565"
         inkscape:connector-curvature="0" />
      <path
         style="opacity:1"
         d="m 15,622.36218 h 16 v 1 H 15 Z"
         id="rect17567"
         inkscape:connector-curvature="0" />
    </g>
    <path
       style="opacity:1"
       d="m 80,793.3622 6,4 v -3 h 1 c 0,2.3333 0,0 0,6 h -1 v -3 l -6,4 z"
       id="path17594"
       inkscape:connector-curvature="0" />
  </g>
</svg>
